Seoul Bike Data Modeling
…
bike_data <- read_csv("https://www4.stat.ncsu.edu/~online/datasets/SeoulBikeData.csv",
                      local = locale(encoding = "latin1"))

Rows: 8760 Columns: 14
── Column specification ────────────────────────────────────────────────────────
Delimiter: ","
chr  (4): Date, Seasons, Holiday, Functioning Day
dbl (10): Rented Bike Count, Hour, Temperature(°C), Humidity(%), Wind speed ...

ℹ Use `spec()` to retrieve the full column specification for this data.
ℹ Specify the column types or set `show_col_types = FALSE` to quiet this message.

bike_data

# A tibble: 8,760 × 14
   Date       `Rented Bike Count`  Hour `Temperature(°C)` `Humidity(%)`
   <chr>                    <dbl> <dbl>             <dbl>         <dbl>
 1 01/12/2017                 254     0              -5.2            37
 2 01/12/2017                 204     1              -5.5            38
 3 01/12/2017                 173     2              -6              39
 4 01/12/2017                 107     3              -6.2            40
 5 01/12/2017                  78     4              -6              36
 6 01/12/2017                 100     5              -6.4            37
 7 01/12/2017                 181     6              -6.6            35
 8 01/12/2017                 460     7              -7.4            38
 9 01/12/2017                 930     8              -7.6            37
10 01/12/2017                 490     9              -6.5            27
# ℹ 8,750 more rows
# ℹ 9 more variables: `Wind speed (m/s)` <dbl>, `Visibility (10m)` <dbl>,
#   `Dew point temperature(°C)` <dbl>, `Solar Radiation (MJ/m2)` <dbl>,
#   `Rainfall(mm)` <dbl>, `Snowfall (cm)` <dbl>, Seasons <chr>, Holiday <chr>,
#   `Functioning Day` <chr>
…
# Filter out out of commission days
bike_data <- bike_data |>
  filter(fn_day == "Yes") |>
  select(-fn_day)

bike_data

# A tibble: 8,465 × 13
   bike_count  hour  temp humidity wind_speed   vis dew_point_temp
        <dbl> <dbl> <dbl>    <dbl>      <dbl> <dbl>          <dbl>
 1        254     0  -5.2       37        2.2  2000          -17.6
 2        204     1  -5.5       38        0.8  2000          -17.6
 3        173     2  -6         39        1    2000          -17.7
 4        107     3  -6.2       40        0.9  2000          -17.6
 5         78     4  -6         36        2.3  2000          -18.6
 6        100     5  -6.4       37        1.5  2000          -18.7
 7        181     6  -6.6       35        1.3  2000          -19.5
 8        460     7  -7.4       38        0.9  2000          -19.3
 9        930     8  -7.6       37        1.1  2000          -19.8
10        490     9  -6.5       27        0.5  1928          -22.4
# ℹ 8,455 more rows
# ℹ 6 more variables: solar_radiation <dbl>, rainfall <dbl>, snowfall <dbl>,
#   date <date>, seasons <fct>, holiday <fct>
…
Now we need to fit the model with tune_grid() and grid_regular().

LASSO_grid <- LASSO_wkf |>
  tune_grid(resamples = bike_10_fold,
            grid = grid_regular(penalty(), levels = 200))

Warning: package 'glmnet' was built under R version 4.3.3

We recall that the LASSO_grid gives us a tibble with 400 metrics, but we may want these metrics computed across the folds for each of the 200 values of the tuning parameter.

LASSO_grid |>
  collect_metrics()

# A tibble: 400 × 7
    penalty .metric .estimator    mean     n std_err .config               
      <dbl> <chr>   <chr>        <dbl> <int>   <dbl> <chr>                 
 1 1   e-10 rmse    standard   431.       10 5.94    Preprocessor1_Model001
 2 1   e-10 rsq     standard     0.544    10 0.00915 Preprocessor1_Model001
 3 1.12e-10 rmse    standard   431.       10 5.94    Preprocessor1_Model002
 4 1.12e-10 rsq     standard     0.544    10 0.00915 Preprocessor1_Model002
 5 1.26e-10 rmse    standard   431.       10 5.94    Preprocessor1_Model003
 6 1.26e-10 rsq     standard     0.544    10 0.00915 Preprocessor1_Model003
 7 1.41e-10 rmse    standard   431.       10 5.94    Preprocessor1_Model004
 8 1.41e-10 rsq     standard     0.544    10 0.00915 Preprocessor1_Model004
 9 1.59e-10 rmse    standard   431.       10 5.94    Preprocessor1_Model005
10 1.59e-10 rsq     standard     0.544    10 0.00915 Preprocessor1_Model005
# ℹ 390 more rows
…
tree_grid <- grid_regular(cost_complexity(),
                          tree_depth(),
                          levels = c(10,5))

tree_fits <- tree_wkf |>
  tune_grid(resamples = bike_10_fold,
            grid = tree_grid)

We can then collect the metric from our fitted regression tree.

tree_fits |>
  collect_metrics()

# A tibble: 100 × 8
   cost_complexity tree_depth .metric .estimator    mean     n std_err .config  
             <dbl>      <int> <chr>   <chr>        <dbl> <int>   <dbl> <chr>    
 1    0.0000000001          1 rmse    standard   542.       10 7.56    Preproce…
 2    0.0000000001          1 rsq     standard     0.279    10 0.00989 Preproce…
 3    0.000000001           1 rmse    standard   542.       10 7.56    Preproce…
 4    0.000000001           1 rsq     standard     0.279    10 0.00989 Preproce…
 5    0.00000001            1 rmse    standard   542.       10 7.56    Preproce…
 6    0.00000001            1 rsq     standard     0.279    10 0.00989 Preproce…
 7    0.0000001             1 rmse    standard   542.       10 7.56    Preproce…
 8    0.0000001             1 rsq     standard     0.279    10 0.00989 Preproce…
 9    0.000001              1 rmse    standard   542.       10 7.56    Preproce…
10    0.000001              1 rsq     standard     0.279    10 0.00989 Preproce…
# ℹ 90 more rows
…
When we compare all five of our best models based on RMSE and MAE, we see that the random forest model performs the best on the test set and is our best model overall. We also see that the LASSO model performs the worst compared to the other models.

Summaries of the Best Models

In addition to determining the best overall model, we can extract the final model fits for each type and report a summary of the model

– For the LASSO and MLR models, report the final coefficient tables

final_MLR_fit |>
  extract_fit_parsnip() |>
  tidy()

# A tibble: 29 × 5
   term                                estimate std.error statistic   p.value
   <chr>                                  <dbl>     <dbl>     <dbl>     <dbl>
 1 (Intercept)                            803.      29.4      27.3  2.94e-155
 2 hour                                   199.       5.45     36.4  1.12e-263
 3 humidity                              -123.      24.6      -4.98 6.44e-  7
 4 seasons_Spring                         -53.1      6.50     -8.17 3.64e- 16
 5 seasons_Summer                         247.      19.1      12.9  8.17e- 38
 6 seasons_Winter                        -290.      20.8     -14.0  1.08e- 43
 7 holiday_No.Holiday                      20.8      5.55      3.75 1.81e-  4
 8 day_type_Weekend                       -43.7      5.02     -8.70 4.08e- 18
 9 seasons_Spring_x_holiday_No.Holiday    -18.9      6.76     -2.80 5.14e-  3
10 seasons_Summer_x_holiday_No.Holiday    -13.3      7.58     -1.75 8.00e-  2
# ℹ 19 more rows
…
